11/05/2017 23:38:25	Múltiple
11/05/2017 23:38:25	192.168.0.10-192.168.0.10-Acess-Múltiple
11/05/2017 23:39:26	Múltiple
11/05/2017 23:39:26	192.168.0.10-192.168.0.10-Acess-Múltiple
11/05/2017 23:41:50	Múltiple
11/05/2017 23:41:50	192.168.0.10-192.168.0.10-Acess-Múltiple
11/05/2017 23:42:18	Múltiple
11/05/2017 23:42:18	192.168.0.10-192.168.0.10-Acess-Múltiple
11/05/2017 23:44:24	Múltiple
11/05/2017 23:44:24	192.168.0.10-192.168.0.10-Acess-Múltiple
11/05/2017 23:49:17	Múltiple
11/05/2017 23:49:17	192.168.0.10-192.168.0.10-Acess-Múltiple
11/05/2017 23:49:32	Múltiple
11/05/2017 23:49:32	192.168.0.10-192.168.0.10-Acess-Múltiple
11/05/2017 23:53:07	Múltiple
11/05/2017 23:53:07	192.168.0.10-192.168.0.10-Acess-Múltiple
11/05/2017 23:53:17	Wanted (Se busca)
11/05/2017 23:53:17	192.168.0.10-192.168.0.10-Acess-Wanted (Se busca)
11/05/2017 23:53:20	Múltiple
11/05/2017 23:53:20	192.168.0.10-192.168.0.10-Acess-Múltiple
11/05/2017 23:54:12	Múltiple
11/05/2017 23:54:12	192.168.0.10-192.168.0.10-Acess-Múltiple
11/05/2017 23:56:08	Múltiple
11/05/2017 23:56:08	192.168.0.10-192.168.0.10-Acess-Múltiple
11/05/2017 23:56:18	Múltiple
11/05/2017 23:56:18	192.168.0.10-192.168.0.10-Acess-Múltiple
11/05/2017 23:57:39	Múltiple
11/05/2017 23:57:39	192.168.0.10-192.168.0.10-Acess-Múltiple
12/05/2017 0:08:27	Múltiple
12/05/2017 0:08:27	192.168.0.10-192.168.0.10-Acess-Múltiple
12/05/2017 0:23:26	Múltiple
12/05/2017 0:23:26	192.168.0.10-192.168.0.10-Acess-Múltiple
12/05/2017 0:24:12	Múltiple
12/05/2017 0:24:12	192.168.0.10-192.168.0.10-Acess-Múltiple
13/05/2017 9:15:58	300
13/05/2017 9:15:58	192.168.0.10-192.168.0.10-Acess-300
13/05/2017 9:22:51	300
13/05/2017 9:22:51	192.168.0.10-192.168.0.10-Acess-300
13/05/2017 14:07:11	300
13/05/2017 14:07:11	192.168.0.10-192.168.0.10-Acess-300
13/05/2017 15:43:55	300
13/05/2017 15:43:55	192.168.0.10-192.168.0.10-Acess-300
13/05/2017 16:04:30	Figuras ocultas
13/05/2017 16:04:30	192.168.0.10-192.168.0.10-Acess-Figuras ocultas
13/05/2017 16:41:51	Figuras ocultas
13/05/2017 16:41:51	192.168.0.10-192.168.0.10-Acess-Figuras ocultas
13/05/2017 16:42:30	Figuras ocultas
13/05/2017 16:42:30	192.168.0.10-192.168.0.10-Acess-Figuras ocultas
13/05/2017 18:47:57	192.168.0.10-192.168.0.10-Acess-Juntos, nada más
13/05/2017 18:48:55	192.168.0.10-192.168.0.10-Acess-Juntos, nada más
13/05/2017 18:51:38	192.168.0.10-192.168.0.10-Acess-Juntos, nada más
13/05/2017 18:52:10	192.168.0.10-192.168.0.10-Acess-Juntos, nada más
13/05/2017 18:57:31	192.168.0.10-192.168.0.10-Acess-Juntos, nada más
13/05/2017 19:04:26	192.168.0.10-192.168.0.10-Acess-Juntos, nada más
13/05/2017 19:07:20	192.168.0.10-192.168.0.10-Acess-Juntos, nada más
13/05/2017 19:07:41	192.168.0.10-192.168.0.10-Acess-Juntos, nada más
13/05/2017 19:16:36	192.168.0.10-192.168.0.10-Acess-Figuras ocultas
13/05/2017 19:16:53	192.168.0.10-192.168.0.10-Acess-Wanted (Se busca)
13/05/2017 19:17:00	192.168.0.10-192.168.0.10-Acess-Múltiple
13/05/2017 19:17:12	192.168.0.10-192.168.0.10-Acess-Volcano
13/05/2017 19:17:21	192.168.0.10-192.168.0.10-Acess-Juntos, nada más
14/05/2017 1:06:00	192.168.0.10-192.168.0.10-Acess-Cabaret
14/05/2017 1:06:27	192.168.0.10-192.168.0.10-Acess-300
14/05/2017 15:40:07	192.168.0.10-192.168.0.10-Acess-Pequeños delitos
14/05/2017 16:33:22	192.168.0.10-192.168.0.10-Acess-Pequeños delitos
14/05/2017 16:40:34	192.168.0.10-192.168.0.10-Acess-Pequeños delitos
14/05/2017 16:41:24	192.168.0.10-192.168.0.10-Acess-Pequeños delitos
14/05/2017 16:42:08	192.168.0.10-192.168.0.10-Acess-Pequeños delitos
14/05/2017 16:43:01	192.168.0.10-192.168.0.10-Acess-Pequeños delitos
14/05/2017 16:45:16	192.168.0.10-192.168.0.10-Acess-Pequeños delitos
14/05/2017 16:46:24	192.168.0.10-192.168.0.10-Acess-Pequeños delitos
14/05/2017 23:22:16	192.168.0.10-192.168.0.10-Acess-Pequeños delitos
16/05/2017 0:00:02	192.168.0.10-192.168.0.10-Acess-X-Men: Apocalipsis
18/05/2017 20:16:59	192.168.0.10-192.168.0.10-Acess-Arac Attack
20/05/2017 18:57:28	192.168.0.10-192.168.0.10-Acess-Daybreakers
20/05/2017 21:11:25	192.168.0.10-192.168.0.10-Acess-Pequeños delitos
22/05/2018 0:04:28	192.168.0.10	::1	LinkEnabled	edheo@hotmail.com	34461	Dando la nota 3 (2017)
22/05/2018 0:05:36	192.168.0.10	::1	LinkEnabled	edheo@hotmail.com	6115	El lado bueno de las cosas (2012)
22/05/2018 0:09:05	192.168.0.10	::1	LinkEnabled	edheo@hotmail.com	6115	El lado bueno de las cosas (2012)
22/05/2018 0:10:27	192.168.0.10	::1	LinkEnabled	edheo@hotmail.com	6115	El lado bueno de las cosas (2012)
22/05/2018 0:37:30	192.168.0.10	::1	LinkEnabled	edheo@hotmail.com	6255	El paciente inglés (1996)
22/05/2018 0:38:19	192.168.0.10	::1	LinkEnabled	edheo@hotmail.com	6255	El paciente inglés (1996)
22/05/2018 0:38:47	192.168.0.10	::1	LinkEnabled	edheo@hotmail.com	6255	El paciente inglés (1996)
22/05/2018 0:39:13	192.168.0.10	::1	LinkEnabled	edheo@hotmail.com	6255	El paciente inglés (1996)
22/05/2018 0:43:25	192.168.0.10	::1	LinkEnabled	edheo@hotmail.com	6255	El paciente inglés (1996)
22/05/2018 0:43:34	192.168.0.10	::1	LinkEnabled	edheo@hotmail.com	6255	El paciente inglés (1996)
22/05/2018 0:43:46	192.168.0.10	::1	LinkEnabled	edheo@hotmail.com	6255	El paciente inglés (1996)
22/05/2018 0:46:14	192.168.0.10	::1	LinkEnabled	edheo@hotmail.com	6123	La princesita (A Little Princess) (1995)
22/05/2018 0:48:32	192.168.0.10	::1	LinkEnabled	edheo@hotmail.com	6123	La princesita (A Little Princess) (1995)
22/05/2018 0:51:41	192.168.0.10	::1	LinkEnabled	edheo@hotmail.com	6123	La princesita (A Little Princess) (1995)
22/05/2018 0:51:52	192.168.0.10	::1	LinkEnabled	edheo@hotmail.com	6123	La princesita (A Little Princess) (1995)
22/05/2018 0:52:07	192.168.0.10	::1	LinkEnabled	edheo@hotmail.com	6123	La princesita (A Little Princess) (1995)
22/05/2018 0:55:10	192.168.0.10	::1	LinkEnabled	edheo@hotmail.com	6123	La princesita (A Little Princess) (1995)
22/05/2018 1:09:30	192.168.0.10	::1	LinkEnabled	edheo@hotmail.com	6255	El paciente inglés (1996)
27/05/2018 0:26:58	192.168.0.10-192.168.134.1-Acess-En algún lugar de la memoria
27/05/2018 0:29:02	192.168.0.10-192.168.0.10-Acess-En algún lugar de la memoria
27/05/2018 0:32:45	192.168.0.10-192.168.0.10-Acess-En algún lugar de la memoria
27/05/2018 0:34:22	192.168.0.10-192.168.0.10-Acess-En algún lugar de la memoria
27/05/2018 0:34:59	192.168.0.10-192.168.0.10-Acess-En algún lugar de la memoria
27/05/2018 0:36:58	192.168.0.10-192.168.0.10-Acess-En algún lugar de la memoria
27/05/2018 0:46:43	192.168.0.10-192.168.0.10-Acess-Mud
27/05/2018 0:47:09	192.168.0.10-192.168.0.10-Acess-¿En qué piensan las mujeres?
27/05/2018 0:47:19	192.168.0.10-192.168.0.10-Acess-¿En qué piensan las mujeres?
27/05/2018 0:48:24	192.168.0.10-192.168.0.10-Acess-Un amigo para Frank
27/05/2018 0:48:37	192.168.0.10-192.168.0.10-Acess-Closer
27/05/2018 1:14:06	192.168.0.10-192.168.0.10-Acess-Closer
27/05/2018 1:19:01	192.168.0.10-192.168.0.10-Acess-Closer
27/05/2018 1:21:28	192.168.0.10-192.168.0.10-Acess-Closer
27/05/2018 1:22:16	192.168.0.10-192.168.0.10-Acess-Closer
27/05/2018 1:32:18	192.168.0.10-192.168.0.10-Acess-Closer
27/05/2018 1:35:06	192.168.0.10-192.168.0.10-Acess-Closer
27/05/2018 1:36:19	192.168.0.10-192.168.0.10-Acess-Closer
27/05/2018 12:04:33	192.168.0.10-192.168.0.10-Acess-¿En qué piensan las mujeres?
27/05/2018 12:08:49	192.168.0.10-192.168.0.10-Acess-¿En qué piensan las mujeres?
27/05/2018 20:01:30	192.168.0.10-192.168.0.10-Acess-En algún lugar de la memoria
27/05/2018 20:01:43	192.168.0.10-192.168.0.10-Acess-Mud
27/05/2018 20:01:52	192.168.0.10-192.168.0.10-Acess-Un amigo para Frank
31/05/2018 22:51:15	192.168.0.10-192.168.0.10-Acess-Black Panther
31/05/2018 23:01:43	192.168.0.10-192.168.0.10-Acess-Black Panther
31/05/2018 23:02:30	192.168.0.10-192.168.0.10-Acess-Call Me by Your Name
31/05/2018 23:02:30	192.168.0.10-192.168.0.10-Acess-Call Me by Your Name
31/05/2018 23:02:37	192.168.0.10-192.168.0.10-Acess-Loving Vincent
31/05/2018 23:02:37	192.168.0.10-192.168.0.10-Acess-Loving Vincent
31/05/2018 23:03:07	192.168.0.10-192.168.0.10-Acess-Loving Vincent
31/05/2018 23:03:07	192.168.0.10-192.168.0.10-Acess-Loving Vincent
31/05/2018 23:03:26	192.168.0.10-192.168.0.10-Acess-Black Panther
31/05/2018 23:03:45	192.168.0.10-192.168.0.10-Acess-Tres anuncios en las afueras de Ebbing, Misuri
31/05/2018 23:03:53	192.168.0.10-192.168.0.10-Acess-En busca de Bobby Fischer
31/05/2018 23:03:53	192.168.0.10-192.168.0.10-Acess-En busca de Bobby Fischer
31/05/2018 23:04:11	192.168.0.10-192.168.0.10-Acess-La boda del Monzón
31/05/2018 23:04:11	192.168.0.10-192.168.0.10-Acess-La boda del Monzón
31/05/2018 23:04:56	192.168.0.10-192.168.0.10-Acess-Black Panther
31/05/2018 23:05:45	192.168.0.10-192.168.0.10-Acess-Black Panther
31/05/2018 23:09:19	192.168.0.10-192.168.0.10-Acess-Black Panther
31/05/2018 23:09:51	192.168.0.10-192.168.0.10-Acess-El paciente inglés
31/05/2018 23:10:14	192.168.0.10-192.168.0.10-Acess-La princesita (A Little Princess)
31/05/2018 23:10:15	192.168.0.10-192.168.0.10-Acess-La princesita (A Little Princess)
31/05/2018 23:10:30	192.168.0.10-192.168.0.10-Acess-Un espacio entre nosotros
31/05/2018 23:11:05	192.168.0.10-192.168.0.10-Acess-Mi Idaho privado
31/05/2018 23:11:05	192.168.0.10-192.168.0.10-Acess-Mi Idaho privado
31/05/2018 23:17:05	192.168.0.10-192.168.0.10-Acess-Black Panther
31/05/2018 23:17:25	192.168.0.10-192.168.0.10-Acess-Call Me by Your Name
31/05/2018 23:17:25	192.168.0.10-192.168.0.10-Acess-Call Me by Your Name
31/05/2018 23:42:32	192.168.0.10-192.168.0.10-Acess-Black Panther
04/06/2018 0:17:11	192.168.0.10-192.168.0.10-Acess-Triangle
04/06/2018 0:17:11	192.168.0.10-192.168.0.10-Acess-Triangle
04/06/2018 0:17:11	192.168.0.10-192.168.0.10-Acess-Triangle
04/06/2018 0:18:34	192.168.0.10-192.168.0.10-Acess-Triangle
04/06/2018 0:18:34	192.168.0.10-192.168.0.10-Acess-Triangle
04/06/2018 0:18:35	192.168.0.10-192.168.0.10-Acess-Triangle
04/06/2018 0:20:50	192.168.0.10-192.168.0.10-Acess-Triangle
04/06/2018 0:20:50	192.168.0.10-192.168.0.10-Acess-Triangle
04/06/2018 0:20:50	192.168.0.10-192.168.0.10-Acess-Triangle
30/09/2018 22:53:01	192.168.0.10-192.168.0.10-Acess-Vengadores: Infinity War
30/09/2018 22:55:47	192.168.0.10-192.168.0.10-Acess-La joya del Nilo
30/09/2018 23:04:04	192.168.0.10-192.168.0.10-Acess-Vengadores: Infinity War
30/09/2018 23:09:18	192.168.0.10-192.168.0.10-Acess-La joya del Nilo
30/09/2018 23:11:15	192.168.0.10-192.168.0.10-Acess-Tras el corazón verde
30/09/2018 23:13:58	192.168.0.10-192.168.0.10-Acess-La joya del Nilo
30/09/2018 23:24:38	192.168.0.10-192.168.0.10-Acess-Vengadores: Infinity War
30/09/2018 23:26:41	192.168.0.10-192.168.0.10-Acess-Vengadores: Infinity War
30/09/2018 23:28:00	192.168.0.10-192.168.0.10-Acess-Vengadores: Infinity War
30/09/2018 23:30:57	192.168.0.10-192.168.0.10-Acess-Vengadores: Infinity War
30/09/2018 23:31:54	192.168.0.10-192.168.0.10-Acess-Tras el corazón verde
30/09/2018 23:35:10	192.168.0.10-192.168.0.10-Acess-Tras el corazón verde
30/09/2018 23:48:11	192.168.0.10-192.168.0.10-Acess-MIB: Men in Black (Hombres de negro)
30/09/2018 23:50:12	192.168.0.10-192.168.0.10-Acess-MIB: Men in Black (Hombres de negro)
30/09/2018 23:52:12	192.168.0.10-192.168.0.10-Acess-MIB: Men in Black (Hombres de negro)
30/09/2018 23:54:04	192.168.0.10-192.168.0.10-Acess-MIB: Men in Black (Hombres de negro)
30/09/2018 23:56:51	192.168.0.10-192.168.0.10-Acess-MIB: Men in Black (Hombres de negro)
01/10/2018 1:34:14	192.168.0.10-192.168.0.10-Acess-La fortaleza escondida
01/10/2018 1:38:16	192.168.0.10-192.168.0.10-Acess-Vengadores: Infinity War
06/10/2018 1:05:08	192.168.0.10-192.168.0.10-Acess-Jeepers Creepers 3
06/10/2018 1:07:09	192.168.0.10-192.168.0.10-Acess-Jeepers Creepers 3
06/10/2018 1:25:04	192.168.0.10-192.168.0.10-Acess-Titan A.E.
06/10/2018 1:25:54	192.168.0.10-192.168.0.10-Acess-Jeepers Creepers 3
06/10/2018 1:26:28	192.168.0.10-192.168.0.10-Acess-Jeepers Creepers 2
06/10/2018 2:03:13	192.168.0.10-192.168.0.10-Acess-Jeepers Creepers 3
06/10/2018 2:04:02	192.168.0.10-192.168.0.10-Acess-La morada del miedo
06/10/2018 2:05:28	192.168.0.10-192.168.0.10-Acess-La morada del miedo
06/10/2018 2:11:32	192.168.0.10-192.168.0.10-Acess-La morada del miedo
06/10/2018 3:01:55	192.168.0.10-192.168.0.10-Acess-Titan A.E.
06/10/2018 3:07:32	192.168.0.10-192.168.0.10-Acess-Armas de mujer
06/10/2018 3:07:46	192.168.0.10-192.168.0.10-Acess-Jeepers Creepers 3
06/10/2018 3:20:34	192.168.0.10-192.168.0.10-Acess-Misión: Imposible - Nación secreta
06/10/2018 11:38:55	192.168.0.10-192.168.0.10-Acess-Armas de mujer
06/10/2018 11:44:51	192.168.0.10-192.168.0.10-Acess-Armas de mujer
07/10/2018 1:08:12	192.168.0.10-192.168.0.10-Acess-Dragonfly: La sombra de la libélula
07/10/2018 1:08:19	192.168.0.10-192.168.0.10-Acess-Jeepers Creepers 3
07/10/2018 1:09:53	192.168.0.10-192.168.0.10-Acess-Jeepers Creepers 3
07/10/2018 1:17:12	192.168.0.10-192.168.0.10-Acess-Asesinato en el Orient Express
07/10/2018 12:00:28	192.168.0.10-192.168.0.10-Acess-Las leyes de la termodinámica
07/10/2018 12:02:44	192.168.0.10-192.168.0.10-Acess-Las leyes de la termodinámica
07/10/2018 12:07:27	192.168.0.10-192.168.0.10-Acess-Las leyes de la termodinámica
07/10/2018 12:09:42	192.168.0.10-192.168.0.10-Acess-Las leyes de la termodinámica
07/10/2018 12:18:45	192.168.0.10-192.168.0.10-Acess-Las leyes de la termodinámica
07/10/2018 12:23:40	192.168.0.10-192.168.0.10-Acess-Las leyes de la termodinámica
07/10/2018 12:26:39	192.168.0.10-192.168.0.10-Acess-Las leyes de la termodinámica
07/10/2018 12:50:43	192.168.0.10-192.168.0.10-Acess-Las leyes de la termodinámica
07/10/2018 12:54:16	192.168.0.10-192.168.0.10-Acess-Las leyes de la termodinámica
07/10/2018 12:58:30	192.168.0.10-192.168.0.10-Acess-Las leyes de la termodinámica
07/10/2018 13:03:02	192.168.0.10-192.168.0.10-Acess-Las leyes de la termodinámica
07/10/2018 13:03:26	192.168.0.10-192.168.0.10-Acess-Noche en el museo: El secreto del faraón
07/10/2018 13:04:00	192.168.0.10-192.168.0.10-Acess-Crepúsculo la saga 5:  Amanecer - Parte 2
07/10/2018 13:06:33	192.168.0.10-192.168.0.10-Acess-La reina de los condenados
07/10/2018 21:04:50	192.168.0.10-192.168.0.10-Acess-Gorrión rojo
07/10/2018 21:12:53	192.168.0.10-192.168.0.10-Acess-Gorrión rojo
07/10/2018 21:25:09	192.168.0.10-192.168.0.10-Acess-Ese oscuro objeto del deseo
07/10/2018 21:27:38	192.168.0.10-192.168.0.10-Acess-Collateral
07/10/2018 21:35:18	192.168.0.10-192.168.0.10-Acess-Fracture
07/10/2018 21:51:17	192.168.0.10-192.168.0.10-Acess-Collateral
07/10/2018 21:57:36	192.168.0.10-192.168.0.10-Acess-Fracture
08/10/2018 22:25:35	192.168.0.10-192.168.0.10-Acess-Planeta Libre
08/10/2018 22:26:25	192.168.0.10-192.168.0.10-Acess-Jeepers Creepers 3
09/10/2018 12:54:50	192.168.0.10-192.168.0.10-Acess-Una vida en tres días
09/10/2018 13:02:47	192.168.0.10-192.168.0.10-Acess-Cuando te encuentre
09/10/2018 13:10:37	192.168.0.10-192.168.0.10-Acess-Una vida en tres días
09/10/2018 13:11:17	192.168.0.10-192.168.0.10-Acess-Cuando te encuentre
09/10/2018 13:14:08	192.168.0.10-192.168.0.10-Acess-Tully
09/10/2018 13:14:14	192.168.0.10-192.168.0.10-Acess-Beyond Skyline
09/10/2018 13:14:48	192.168.0.10-192.168.0.10-Acess-Planeta Libre
09/10/2018 13:14:55	192.168.0.10-192.168.0.10-Acess-Cuando te encuentre
09/10/2018 13:18:22	192.168.0.10-192.168.0.10-Acess-Planeta Libre
09/10/2018 13:18:53	192.168.0.10-192.168.0.10-Acess-Cuando te encuentre
09/10/2018 13:19:48	192.168.0.10-192.168.0.10-Acess-Tully
09/10/2018 13:22:24	192.168.0.10-192.168.0.10-Acess-Tully
23/10/2018 0:59:34	192.168.0.10-192.168.0.10-Acess-Acusados
23/10/2018 1:00:36	192.168.0.10-192.168.0.10-Acess-Acusados
23/10/2018 2:31:58	192.168.0.10-192.168.0.10-Acess-Inner Workings
23/10/2018 11:10:57	192.168.0.10-192.168.0.10-Acess-Juegos salvajes
23/10/2018 11:12:16	192.168.0.10-192.168.0.10-Acess-El exorcista III
23/10/2018 11:12:27	192.168.0.10-192.168.0.10-Acess-Poltergeist II: El otro lado
23/10/2018 11:13:20	192.168.0.10-192.168.0.10-Acess-Poltergeist II: El otro lado
23/10/2018 11:18:15	192.168.0.10-192.168.0.10-Acess-El exorcista II: El hereje
23/10/2018 11:19:45	192.168.0.10-192.168.0.10-Acess-El exorcista III
23/10/2018 11:21:11	192.168.0.10-192.168.0.10-Acess-El exorcista III
23/10/2018 11:21:40	192.168.0.10-192.168.0.10-Acess-El exorcista III
23/10/2018 11:24:06	192.168.0.10-192.168.0.10-Acess-El exorcista III
23/10/2018 11:25:05	192.168.0.10-192.168.0.10-Acess-El exorcista III
23/10/2018 11:25:51	192.168.0.10-192.168.0.10-Acess-El exorcista III
23/10/2018 11:28:09	192.168.0.10-192.168.0.10-Acess-El exorcista III
23/10/2018 11:30:12	192.168.0.10-192.168.0.10-Acess-El exorcista III
23/10/2018 11:31:48	192.168.0.10-192.168.0.10-Acess-El exorcista III
23/10/2018 11:33:01	192.168.0.10-192.168.0.10-Acess-El exorcista III
23/10/2018 11:33:29	192.168.0.10-192.168.0.10-Acess-El exorcista
23/10/2018 11:36:01	192.168.0.10-192.168.0.10-Acess-El exorcista
23/10/2018 11:44:37	192.168.0.10-192.168.0.10-Acess-El exorcista II: El hereje
23/10/2018 11:46:11	192.168.0.10-192.168.0.10-Acess-El exorcista II: El hereje
23/10/2018 14:07:43	192.168.0.10-192.168.0.10-Acess-Silkwood
23/10/2018 14:10:07	192.168.0.10-192.168.0.10-Acess-Historia de un crimen
23/10/2018 14:12:50	192.168.0.10-192.168.0.10-Acess-Historia de un crimen
23/10/2018 14:15:55	192.168.0.10-192.168.0.10-Acess-A la deriva
23/10/2018 14:17:55	192.168.0.10-192.168.0.10-Acess-A la deriva
23/10/2018 14:20:12	192.168.0.10-192.168.0.10-Acess-Volverás en mis sueños
23/10/2018 14:22:05	192.168.0.10-192.168.0.10-Acess-A la deriva
23/10/2018 14:25:28	192.168.0.10-192.168.0.10-Acess-A la deriva
23/10/2018 15:08:49	192.168.0.10-192.168.0.10-Acess-A la deriva
23/10/2018 15:12:17	192.168.0.10-192.168.0.10-Acess-A la deriva
23/10/2018 15:28:27	192.168.0.10-192.168.0.10-Acess-A la deriva
23/10/2018 16:21:56	192.168.0.10-192.168.0.10-Acess-Silkwood
23/10/2018 16:36:05	192.168.0.10-192.168.0.10-Acess-Silkwood
23/10/2018 16:41:32	192.168.0.10-192.168.0.10-Acess-Chicago
23/10/2018 16:45:23	192.168.0.10-192.168.0.10-Acess-Vengadores: Infinity War
25/10/2018 0:04:10	192.168.0.10-192.168.0.10-Acess-Ahora o nunca
26/10/2018 0:40:18	192.168.0.10-192.168.0.10-Acess-Amor a segunda vista
26/10/2018 0:40:19	192.168.0.10-192.168.0.10-Acess-Amor a segunda vista
26/10/2018 0:40:46	192.168.0.10-192.168.0.10-Acess-Amor a segunda vista
26/10/2018 0:41:00	192.168.0.10-192.168.0.10-Acess-Amor a segunda vista
26/10/2018 0:41:23	192.168.0.10-192.168.0.10-Acess-Amor a segunda vista
26/10/2018 0:41:48	192.168.0.10-192.168.0.10-Acess-Amor a segunda vista
26/10/2018 0:44:21	192.168.0.10-192.168.0.10-Acess-Amor a segunda vista
26/10/2018 0:45:14	192.168.0.10-192.168.0.10-Acess-Amor a segunda vista
26/10/2018 0:45:17	192.168.0.10-192.168.0.10-Acess-Amor a segunda vista
26/10/2018 0:46:32	192.168.0.10-192.168.0.10-Acess-Amor a segunda vista
26/10/2018 0:47:35	192.168.0.10-192.168.0.10-Acess-Amor a segunda vista
26/10/2018 0:49:16	192.168.0.10-192.168.0.10-Acess-Amor a segunda vista
26/10/2018 1:09:36	192.168.0.10-192.168.0.10-Acess-Amor a segunda vista
26/10/2018 1:12:35	192.168.0.10-192.168.0.10-Acess-Amor a segunda vista
26/10/2018 1:12:41	192.168.0.10-192.168.0.10-Acess-Amor a segunda vista
26/10/2018 1:13:26	192.168.0.10-192.168.0.10-Acess-Amor a segunda vista
26/10/2018 1:13:30	192.168.0.10-192.168.0.10-Acess-Amor a segunda vista
26/10/2018 1:15:28	192.168.0.10-192.168.0.10-Acess-El coleccionista de huesos
26/10/2018 1:15:34	192.168.0.10-192.168.0.10-Acess-El coleccionista de huesos
26/10/2018 1:17:11	192.168.0.10-192.168.0.10-Acess-El coleccionista de huesos
26/10/2018 1:19:30	192.168.0.10-192.168.0.10-Acess-El coleccionista de huesos
26/10/2018 1:19:36	192.168.0.10-192.168.0.10-Acess-El coleccionista de huesos
26/10/2018 1:28:49	192.168.0.10-192.168.0.10-Acess-El coleccionista de huesos
26/10/2018 1:28:55	192.168.0.10-192.168.0.10-Acess-El coleccionista de huesos
26/10/2018 1:29:05	192.168.0.10-192.168.0.10-Acess-El coleccionista de huesos
26/10/2018 1:29:10	192.168.0.10-192.168.0.10-Acess-El coleccionista de huesos
26/10/2018 1:29:48	192.168.0.10-192.168.0.10-Acess-El día de la boda
26/10/2018 1:29:51	192.168.0.10-192.168.0.10-Acess-El día de la boda
26/10/2018 1:37:26	192.168.0.10-192.168.0.10-Acess-El coleccionista de huesos
26/10/2018 1:37:32	192.168.0.10-192.168.0.10-Acess-El coleccionista de huesos
30/10/2018 0:49:09	192.168.0.10-192.168.0.10-Acess-Ant-Man y la Avispa
30/10/2018 0:51:19	192.168.0.10-192.168.0.10-Acess-Ant-Man y la Avispa
30/10/2018 1:16:15	192.168.0.10-192.168.0.10-Acess-Una buena receta
05/11/2018 18:54:22	192.168.0.10-192.168.0.10-Acess-El legado del diablo
06/11/2018 12:01:06	192.168.0.10-192.168.0.10-Acess-Desigualdad para todos
06/11/2018 12:02:52	192.168.0.10-192.168.0.10-Acess-Desigualdad para todos
06/11/2018 12:03:28	192.168.0.10-192.168.0.10-Acess-Desigualdad para todos
06/11/2018 12:03:52	192.168.0.10-192.168.0.10-Acess-Interstellar
06/11/2018 12:04:06	192.168.0.10-192.168.0.10-Acess-Interstellar
06/11/2018 12:05:31	192.168.0.10-192.168.0.10-Acess-Interstellar
06/11/2018 12:07:42	192.168.0.10-192.168.0.10-Acess-Interstellar
06/11/2018 12:12:24	192.168.0.10-192.168.0.10-Acess-Interstellar
06/11/2018 12:15:09	192.168.0.10-192.168.0.10-Acess-Interstellar
06/11/2018 12:23:25	192.168.0.10-192.168.0.10-Acess-Interstellar
06/11/2018 12:24:26	192.168.0.10-192.168.0.10-Acess-Interstellar
06/11/2018 12:27:41	192.168.0.10-192.168.0.10-Acess-Interstellar
06/11/2018 12:33:01	192.168.0.10-192.168.0.10-Acess-Interstellar
06/11/2018 12:33:24	192.168.0.10-192.168.0.10-Acess-Interstellar
06/11/2018 12:34:29	192.168.0.10-192.168.0.10-Acess-Interstellar
14/01/2019 1:42:04	192.168.0.10-192.168.0.10-Acess-Doctor Strange
14/01/2019 1:42:40	192.168.0.10-192.168.0.10-Acess-Doctor Strange
14/01/2019 1:46:14	192.168.0.10-192.168.0.10-Acess-Doctor Strange
14/01/2019 1:47:48	192.168.0.10-192.168.0.10-Acess-Doctor Strange
14/01/2019 1:49:46	192.168.0.10-192.168.0.10-Acess-Doctor Strange
14/01/2019 1:52:45	192.168.0.10-192.168.0.10-Acess-Doctor Strange
14/01/2019 1:53:52	192.168.0.10-192.168.0.10-Acess-Doctor Strange
23/08/2019 17:33:59	192.168.245.1-192.168.245.1-Acess-Frozen: Una aventura de Olaf
23/08/2019 17:41:19	192.168.245.1-192.168.245.1-Acess-Frozen: Una aventura de Olaf
23/08/2019 17:42:21	192.168.245.1-192.168.245.1-Acess-Frozen: Una aventura de Olaf
23/08/2019 17:42:57	192.168.245.1-192.168.245.1-Acess-El capitán
23/08/2019 17:43:38	192.168.245.1-192.168.245.1-Acess-El capitán
23/08/2019 17:44:52	192.168.245.1-192.168.245.1-Acess-La gran estafa americana
23/08/2019 17:45:33	192.168.245.1-192.168.245.1-Acess-La gran estafa americana
